{
  "project_info": {
    "project_number": "128568000592",
    "firebase_url": "https://deliveryfood-7cb13.firebaseio.com",
    "project_id": "deliveryfood-7cb13",
    "storage_bucket": "deliveryfood-7cb13.appspot.com"
  },
  "client": [
    {
      "client_info": {
        "mobilesdk_app_id": "1:128568000592:android:4cba4fb3f1e0a763579155",
        "android_client_info": {
          "package_name": "com.filipepiresg.deliveryfoodjsx"
        }
      },
      "oauth_client": [
        {
          "client_id": "128568000592-oeecaskhd9nan2606r4eako00uh6f7of.apps.googleusercontent.com",
          "client_type": 3
        }
      ],
      "api_key": [
        {
          "current_key": "AIzaSyC6Lygonfcg4dF5iNNACGallm56G7MOkgk"
        }
      ],
      "services": {
        "appinvite_service": {
          "other_platform_oauth_client": [
            {
              "client_id": "128568000592-oeecaskhd9nan2606r4eako00uh6f7of.apps.googleusercontent.com",
              "client_type": 3
            },
            {
              "client_id": "128568000592-8jt2s4a044up4co9pmm59bt6musdk2bf.apps.googleusercontent.com",
              "client_type": 2,
              "ios_info": {
                "bundle_id": "com.filipepiresg.deliveryfoodjsx"
              }
            }
          ]
        }
      }
    }
  ],
  "configuration_version": "1"
}